<?xml version="1.0" encoding="UTF-8" standalone="no"?>
<svg
   xmlns:dc="http://purl.org/dc/elements/1.1/"
   xmlns:cc="http://creativecommons.org/ns#"
   xmlns:rdf="http://www.w3.org/1999/02/22-rdf-syntax-ns#"
   xmlns:svg="http://www.w3.org/2000/svg"
   xmlns="http://www.w3.org/2000/svg"
   xmlns:xlink="http://www.w3.org/1999/xlink"
   xmlns:sodipodi="http://sodipodi.sourceforge.net/DTD/sodipodi-0.dtd"
   xmlns:inkscape="http://www.inkscape.org/namespaces/inkscape"
   width="175.23116mm"
   height="156.23116mm"
   viewBox="0 0 175.23116 156.23116"
   version="1.1"
   id="svg1255"
   inkscape:version="1.0.1 (0767f8302a, 2020-10-17)"
   sodipodi:docname="login_bg.svg">
  <defs
     id="defs1249">
    <linearGradient
       inkscape:collect="always"
       id="linearGradient2994">
      <stop
         style="stop-color:#feffc9;stop-opacity:1"
         offset="0"
         id="stop2990" />
      <stop
         style="stop-color:#9f0505;stop-opacity:1"
         offset="1"
         id="stop2992" />
    </linearGradient>
    <radialGradient
       inkscape:collect="always"
       xlink:href="#linearGradient2994"
       id="radialGradient3091"
       cx="68.070419"
       cy="90.096413"
       fx="68.070419"
       fy="90.096413"
       r="30.315859"
       gradientTransform="matrix(1,0,0,0.93756078,0.43437085,5.6691226)"
       gradientUnits="userSpaceOnUse" />
  </defs>
  <sodipodi:namedview
     id="base"
     pagecolor="#ffffff"
     bordercolor="#666666"
     borderopacity="1.0"
     inkscape:pageopacity="0.0"
     inkscape:pageshadow="2"
     inkscape:zoom="0.7"
     inkscape:cx="111.2315"
     inkscape:cy="463.4512"
     inkscape:document-units="mm"
     inkscape:current-layer="layer1"
     inkscape:document-rotation="0"
     showgrid="false"
     inkscape:window-width="2560"
     inkscape:window-height="1403"
     inkscape:window-x="0"
     inkscape:window-y="0"
     inkscape:window-maximized="1"
     showguides="true"
     inkscape:guide-bbox="true">
    <sodipodi:guide
       position="142.99628,164.5789"
       orientation="1,0"
       id="guide2862" />
    <sodipodi:guide
       position="-87.924237,115.76241"
       orientation="0,-1"
       id="guide2864" />
  </sodipodi:namedview>
  <metadata
     id="metadata1252">
    <rdf:RDF>
      <cc:Work
         rdf:about="">
        <dc:format>image/svg+xml</dc:format>
        <dc:type
           rdf:resource="http://purl.org/dc/dcmitype/StillImage" />
        <dc:title />
      </cc:Work>
    </rdf:RDF>
  </metadata>
  <g
     inkscape:label="Ebene 1"
     inkscape:groupmode="layer"
     id="layer1"
     transform="translate(-1.8748424,-6.4024951)">
    <rect
       style="fill:#050505;fill-opacity:1;stroke:#e6e6e6;stroke-width:6.9;stroke-linejoin:round;stroke-miterlimit:4;stroke-dasharray:none;stroke-dashoffset:2.52472;stroke-opacity:1;paint-order:markers fill stroke"
       id="rect2794"
       width="149.33116"
       height="149.33116"
       x="-190.23126"
       y="13.717298"
       rx="25.461693"
       ry="25.461693" />
    <g
       id="g2986"
       style="stroke-width:0.517307"
       transform="matrix(1.9330877,0,0,1.9330877,118.49284,86.026642)">
      <rect
         style="opacity:1;fill:#00f8ff;fill-opacity:1;stroke:#686568;stroke-width:0;stroke-linejoin:round;stroke-miterlimit:4;stroke-dasharray:none;stroke-dashoffset:2.52472;stroke-opacity:0.862849;paint-order:markers fill stroke"
         id="rect2887"
         width="8.9902229"
         height="56.900848"
         x="-125.5678"
         y="-27.092909"
         ry="1.7616179"
         rx="1.7616179" />
      <rect
         style="opacity:1;fill:#9100ff;fill-opacity:1;stroke:#686568;stroke-width:0;stroke-linejoin:round;stroke-miterlimit:4;stroke-dasharray:none;stroke-dashoffset:2.52472;stroke-opacity:0.862849;paint-order:markers fill stroke"
         id="rect2955"
         width="8.9902229"
         height="56.900848"
         x="-120.38171"
         y="6.631393"
         ry="1.7616179"
         rx="1.7616179"
         transform="rotate(16.2)" />
      <rect
         style="opacity:1;fill:#d900ff;fill-opacity:1;stroke:#686568;stroke-width:0;stroke-linejoin:round;stroke-miterlimit:4;stroke-dasharray:none;stroke-dashoffset:2.52472;stroke-opacity:0.862849;paint-order:markers fill stroke"
         id="rect2957"
         width="8.9902229"
         height="56.900848"
         x="-105.99276"
         y="37.569752"
         ry="1.7616179"
         rx="1.7616179"
         transform="rotate(32.4)" />
      <rect
         style="opacity:1;fill:#ff00b6;fill-opacity:1;stroke:#686568;stroke-width:0;stroke-linejoin:round;stroke-miterlimit:4;stroke-dasharray:none;stroke-dashoffset:2.52472;stroke-opacity:0.862849;paint-order:markers fill stroke"
         id="rect2959"
         width="8.9902229"
         height="56.900848"
         x="-83.543617"
         y="63.265274"
         ry="1.7616179"
         rx="1.7616179"
         transform="rotate(48.6)" />
      <rect
         style="opacity:1;fill:#ff0012;fill-opacity:1;stroke:#686568;stroke-width:0;stroke-linejoin:round;stroke-miterlimit:4;stroke-dasharray:none;stroke-dashoffset:2.52472;stroke-opacity:0.862849;paint-order:markers fill stroke"
         id="rect2961"
         width="8.9902229"
         height="56.900848"
         x="-54.817028"
         y="81.677414"
         ry="1.7616179"
         rx="1.7616179"
         transform="rotate(64.8)" />
      <rect
         style="opacity:1;fill:#ff5e00;fill-opacity:1;stroke:#686568;stroke-width:0;stroke-linejoin:round;stroke-miterlimit:4;stroke-dasharray:none;stroke-dashoffset:2.52472;stroke-opacity:0.862849;paint-order:markers fill stroke"
         id="rect2963"
         width="8.9902229"
         height="56.900848"
         x="-22.094242"
         y="91.344009"
         ry="1.7616179"
         rx="1.7616179"
         transform="rotate(81)" />
      <rect
         style="opacity:1;fill:#ff9500;fill-opacity:1;stroke:#686568;stroke-width:0;stroke-linejoin:round;stroke-miterlimit:4;stroke-dasharray:none;stroke-dashoffset:2.52472;stroke-opacity:0.862849;paint-order:markers fill stroke"
         id="rect2965"
         width="8.9902229"
         height="56.900848"
         x="12.026136"
         y="91.497414"
         ry="1.7616179"
         rx="1.7616179"
         transform="rotate(97.2)" />
      <rect
         style="opacity:1;fill:#ffcc00;fill-opacity:1;stroke:#686568;stroke-width:0;stroke-linejoin:round;stroke-miterlimit:4;stroke-dasharray:none;stroke-dashoffset:2.52472;stroke-opacity:0.862849;paint-order:markers fill stroke"
         id="rect2967"
         width="8.9902229"
         height="56.900848"
         x="44.834518"
         y="82.125443"
         ry="1.7616179"
         rx="1.7616179"
         transform="rotate(113.4)" />
      <rect
         style="opacity:1;fill:#a5ff00;fill-opacity:1;stroke:#686568;stroke-width:0;stroke-linejoin:round;stroke-miterlimit:4;stroke-dasharray:none;stroke-dashoffset:2.52472;stroke-opacity:0.862849;paint-order:markers fill stroke"
         id="rect2969"
         width="8.9902229"
         height="56.900848"
         x="73.725502"
         y="63.972355"
         ry="1.7616179"
         rx="1.7616179"
         transform="rotate(129.6)" />
      <rect
         style="opacity:1;fill:#00ff7a;fill-opacity:1;stroke:#686568;stroke-width:0;stroke-linejoin:round;stroke-miterlimit:4;stroke-dasharray:none;stroke-dashoffset:2.52472;stroke-opacity:0.862849;paint-order:markers fill stroke"
         id="rect2971"
         width="8.9902229"
         height="56.900848"
         x="96.404785"
         y="38.479733"
         ry="1.7616179"
         rx="1.7616179"
         transform="rotate(145.8)" />
      <rect
         style="opacity:1;fill:#00ffd4;fill-opacity:1;stroke:#686568;stroke-width:0;stroke-linejoin:round;stroke-miterlimit:4;stroke-dasharray:none;stroke-dashoffset:2.52472;stroke-opacity:0.862849;paint-order:markers fill stroke"
         id="rect2973"
         width="8.9902229"
         height="56.900848"
         x="111.07134"
         y="7.672009"
         ry="1.7616179"
         rx="1.7616179"
         transform="rotate(162)" />
    </g>
    <circle
       style="opacity:1;fill:#323232;fill-opacity:0.455261;stroke:#686568;stroke-width:0;stroke-linejoin:round;stroke-miterlimit:4;stroke-dasharray:none;stroke-dashoffset:2.52472;stroke-opacity:0.862849;paint-order:markers fill stroke"
       id="path3093"
       cx="-115.13226"
       cy="88.861229"
       r="34.539886" />
    <ellipse
       style="fill:url(#radialGradient3091);fill-opacity:1;stroke:#686568;stroke-width:0;stroke-linejoin:round;stroke-miterlimit:4;stroke-dasharray:none;stroke-dashoffset:2.52472;stroke-opacity:0.862849;paint-order:markers fill stroke"
       id="path2988"
       cx="-114.69773"
       cy="88.456635"
       rx="30.315859"
       ry="28.42296" />
    <rect
       style="fill:#050505;fill-opacity:1;stroke:#e6e6e6;stroke-width:6.89999;stroke-linejoin:round;stroke-miterlimit:4;stroke-dasharray:none;stroke-dashoffset:2.52472;stroke-opacity:1;paint-order:markers fill stroke"
       id="rect2794-3"
       width="149.33116"
       height="149.33116"
       x="5.8783193"
       y="10.360712"
       rx="25.461693"
       ry="25.461693" />
    <ellipse
       style="fill:#ff0478;fill-opacity:1;stroke:#ffd900;stroke-width:1.965;stroke-linejoin:round;stroke-miterlimit:4;stroke-dasharray:0, 21.615;stroke-dashoffset:19.65;paint-order:markers fill stroke"
       id="path866"
       cx="258.05658"
       cy="113.63775"
       rx="37.42638"
       ry="35.795528" />
    <ellipse
       style="fill:#84b5ff;fill-opacity:1;stroke:#ffd900;stroke-width:1.965;stroke-linejoin:round;stroke-miterlimit:4;stroke-dasharray:0, 21.615;stroke-dashoffset:19.65;paint-order:markers fill stroke"
       id="path866-6"
       cx="258.70734"
       cy="57.40237"
       rx="37.42638"
       ry="35.795528" />
    <path
       style="fill:none;stroke:#0096ff;stroke-width:3.965;stroke-linecap:butt;stroke-linejoin:miter;stroke-miterlimit:4;stroke-dasharray:none;stroke-opacity:1"
       d="m 207.28955,161.1272 0.12362,96.84594 100.46583,-0.87105 -0.62332,-96.05525 z"
       id="path999" />
    <circle
       style="fill:#0698ff;fill-opacity:1;stroke:#ffffff;stroke-width:3.2;stroke-linejoin:round;stroke-miterlimit:4;stroke-dasharray:none;stroke-dashoffset:0;stroke-opacity:1;paint-order:markers fill stroke"
       id="path941-9-3"
       cx="30.920418"
       cy="134.52336"
       r="15.634386" />
    <g
       id="g981"
       transform="matrix(0.26458333,0,0,0.26458333,-2.499645,171.73932)">
      <path
         style="fill:#f3705a"
         d="m 273.067,387.733 v -23.467 l -32,-7.467 c -1.067,-6.4 -2.133,-11.733 -4.267,-17.067 l 24.533,-22.4 -11.733,-20.265 -30.933,9.6 c -4.267,-4.267 -8.533,-8.533 -12.8,-12.8 l 9.6,-30.933 L 195.2,251.2 172.8,275.733 c -5.333,-2.133 -11.733,-3.2 -17.067,-4.267 l -7.467,-32 H 124.8 l -7.467,32 c -6.4,1.067 -11.733,2.133 -17.067,4.267 L 77.866,251.2 57.6,262.933 l 9.6,30.933 c -4.267,4.267 -8.533,8.533 -12.8,12.8 l -30.933,-9.6 -11.733,20.267 24.533,22.4 c -2.133,5.333 -3.2,11.733 -4.267,17.067 l -32,7.467 v 23.467 l 32,7.467 c 1.067,6.4 2.133,11.733 4.267,17.067 l -24.533,22.4 11.733,20.267 30.933,-9.6 c 4.267,4.267 8.533,8.533 12.8,12.8 l -9.6,30.933 20.267,11.732 22.4,-24.533 c 5.333,2.133 11.733,3.2 17.067,4.267 l 7.467,32 h 23.467 l 7.467,-32 c 6.4,-1.067 11.733,-2.133 17.067,-4.267 l 22.4,24.533 20.267,-11.733 -9.6,-30.933 c 4.267,-4.267 8.533,-8.533 12.8,-12.8 l 30.933,9.6 11.733,-20.267 -24.533,-22.4 c 2.133,-5.333 3.2,-11.733 4.267,-17.067 z M 136.533,440 c -35.2,0 -64,-28.8 -64,-64 0,-35.2 28.8,-64 64,-64 35.2,0 64,28.8 64,64 0,35.2 -28.8,64 -64,64 z"
         id="path977" />
      <path
         style="fill:#f3705a"
         d="m 136.533,353.6 c -12.8,0 -22.4,10.667 -22.4,22.4 0,12.8 10.667,22.4 22.4,22.4 12.8,0 22.4,-10.667 22.4,-22.4 0,-12.8 -9.6,-22.4 -22.4,-22.4 z"
         id="path979" />
    </g>
    <g
       id="g987"
       transform="matrix(0.17314975,0,0,0.16846832,21.71731,21.482419)"
       style="fill:#ff00c8;fill-opacity:1;stroke:none;stroke-width:1.54915;stroke-opacity:1">
      <path
         style="fill:#ff00c8;fill-opacity:1;stroke:none;stroke-width:1.54915;stroke-opacity:1"
         d="M 504.533,219.2 512,192.533 477.867,174.4 c 1.067,-7.467 1.067,-14.933 0,-21.333 l 35.2,-18.133 -8.533,-27.733 -39.467,2.133 c -3.2,-6.4 -6.4,-12.8 -10.667,-19.2 L 475.733,57.067 455.467,36.8 422.4,58.133 C 417.067,53.866 410.667,50.666 404.267,47.466 L 406.4,8 378.667,0.533 l -18.133,35.2 c -7.467,-1.067 -14.933,-1.067 -21.333,0 L 322.134,0.533 294.4,8 l 2.133,39.467 c -6.4,3.2 -12.8,6.4 -19.2,10.667 L 244.267,36.8 224,56 245.333,89.067 C 241.066,94.4 237.866,100.8 234.666,107.2 l -39.467,-2.133 -7.467,27.733 35.2,18.133 c -1.067,7.467 -1.067,14.933 0,21.333 l -35.2,18.133 7.467,27.733 39.468,-2.132 c 3.2,6.4 6.4,12.8 10.667,19.2 L 224,268.267 l 20.267,20.267 33.067,-21.333 c 5.333,4.267 11.733,7.467 18.133,10.667 l -2.133,39.467 27.733,7.467 18.133,-34.133 c 7.467,1.067 14.933,1.067 21.333,0 l 18.133,35.2 27.734,-7.469 -2.133,-39.467 c 6.4,-3.2 12.8,-6.4 19.2,-10.667 l 33.067,21.333 20.267,-20.267 -21.333,-33.067 c 4.267,-5.333 7.467,-11.733 10.667,-18.133 z m -170.666,3.2 C 300.8,213.867 281.6,179.733 290.134,146.667 298.668,113.601 332.8,94.4 365.867,102.933 c 33.067,8.533 52.267,42.667 43.733,75.733 -9.6,33.067 -43.733,52.267 -75.733,43.734 z"
         id="path983" />
      <path
         style="fill:#ff00c8;fill-opacity:1;stroke:none;stroke-width:1.54915;stroke-opacity:1"
         d="m 357.333,136 c -14.933,-4.267 -29.867,4.267 -34.133,19.2 -4.267,14.933 4.267,29.867 19.2,34.133 14.933,4.267 29.867,-4.267 34.133,-19.2 3.2,-14.933 -5.333,-29.866 -19.2,-34.133 z"
         id="path985" />
    </g>
    <path
       style="fill:#ffd15c;stroke-width:0.264583"
       d="m 45.760354,215.62496 v -7.05564 l -6.491022,-1.41103 c -0.282311,-1.41102 -0.846667,-2.82231 -1.693334,-3.95102 l 3.668713,-5.64462 -5.08,-5.08 -5.644356,3.66898 c -1.128977,-0.84667 -2.54,-1.41103 -3.951023,-1.69334 l -1.411023,-6.49102 h -7.055644 l -1.411023,6.49102 c -1.411023,0.28231 -2.82231,0.84667 -3.951023,1.69334 l -5.6446204,-3.66898 -5.0799996,5.08 3.6689767,5.36231 c -0.8466666,1.41102 -1.4110229,2.54 -1.6933333,4.23333 l -6.4912874,1.41103 v 7.05564 l 6.4910228,1.41102 c 0.2823104,1.41103 0.8466667,2.82231 1.6933333,3.95103 l -3.6687121,5.36231 5.0799996,5.08 5.6443564,-3.66898 c 1.128977,0.84667 2.54,1.41102 3.951023,1.69333 l 1.411023,6.49103 h 7.055643 l 1.411023,-6.49103 c 1.411023,-0.28231 2.822311,-0.84666 4.233333,-1.69333 l 5.362311,3.66898 5.08,-5.08 -3.668977,-5.64436 c 0.846666,-1.12898 1.411023,-2.54 1.693333,-3.95102 z m -23.988976,3.10436 c -3.668977,0 -6.491023,-2.82231 -6.491023,-6.49103 0,-3.66871 2.82231,-6.49102 6.491023,-6.49102 3.668712,0 6.491022,2.82231 6.491022,6.49102 0,3.66872 -3.104356,6.49103 -6.491022,6.49103 z"
       id="path989" />
    <g
       id="g991"
       transform="matrix(0.26458333,0,0,0.26458333,-2.499645,171.73932)" />
    <g
       id="g993"
       transform="matrix(0.26458333,0,0,0.26458333,-2.499645,171.73932)" />
    <g
       id="g995"
       transform="matrix(0.26458333,0,0,0.26458333,-2.499645,171.73932)" />
    <g
       id="g997"
       transform="matrix(0.26458333,0,0,0.26458333,-2.499645,171.73932)" />
    <g
       id="g999"
       transform="matrix(0.26458333,0,0,0.26458333,-2.499645,171.73932)" />
    <g
       id="g1001"
       transform="matrix(0.26458333,0,0,0.26458333,-2.499645,171.73932)" />
    <g
       id="g1003"
       transform="matrix(0.26458333,0,0,0.26458333,-2.499645,171.73932)" />
    <g
       id="g1005"
       transform="matrix(0.26458333,0,0,0.26458333,-2.499645,171.73932)" />
    <g
       id="g1007"
       transform="matrix(0.26458333,0,0,0.26458333,-2.499645,171.73932)" />
    <g
       id="g1009"
       transform="matrix(0.26458333,0,0,0.26458333,-2.499645,171.73932)" />
    <g
       id="g1011"
       transform="matrix(0.26458333,0,0,0.26458333,-2.499645,171.73932)" />
    <g
       id="g1013"
       transform="matrix(0.26458333,0,0,0.26458333,-2.499645,171.73932)" />
    <g
       id="g1015"
       transform="matrix(0.26458333,0,0,0.26458333,-2.499645,171.73932)" />
    <g
       id="g1017"
       transform="matrix(0.26458333,0,0,0.26458333,-2.499645,171.73932)" />
    <g
       id="g1019"
       transform="matrix(0.26458333,0,0,0.26458333,-2.499645,171.73932)" />
    <g
       id="g987-5-6"
       transform="matrix(0.17314975,0,0,0.16846832,-11.029131,64.151566)"
       style="fill:#00ff0a;fill-opacity:1;stroke:none;stroke-width:1.54915;stroke-opacity:1">
      <path
         style="fill:#00ff0a;fill-opacity:1;stroke:none;stroke-width:1.54915;stroke-opacity:1"
         d="M 504.533,219.2 512,192.533 477.867,174.4 c 1.067,-7.467 1.067,-14.933 0,-21.333 l 35.2,-18.133 -8.533,-27.733 -39.467,2.133 c -3.2,-6.4 -6.4,-12.8 -10.667,-19.2 L 475.733,57.067 455.467,36.8 422.4,58.133 C 417.067,53.866 410.667,50.666 404.267,47.466 L 406.4,8 378.667,0.533 l -18.133,35.2 c -7.467,-1.067 -14.933,-1.067 -21.333,0 L 322.134,0.533 294.4,8 l 2.133,39.467 c -6.4,3.2 -12.8,6.4 -19.2,10.667 L 244.267,36.8 224,56 245.333,89.067 C 241.066,94.4 237.866,100.8 234.666,107.2 l -39.467,-2.133 -7.467,27.733 35.2,18.133 c -1.067,7.467 -1.067,14.933 0,21.333 l -35.2,18.133 7.467,27.733 39.468,-2.132 c 3.2,6.4 6.4,12.8 10.667,19.2 L 224,268.267 l 20.267,20.267 33.067,-21.333 c 5.333,4.267 11.733,7.467 18.133,10.667 l -2.133,39.467 27.733,7.467 18.133,-34.133 c 7.467,1.067 14.933,1.067 21.333,0 l 18.133,35.2 27.734,-7.469 -2.133,-39.467 c 6.4,-3.2 12.8,-6.4 19.2,-10.667 l 33.067,21.333 20.267,-20.267 -21.333,-33.067 c 4.267,-5.333 7.467,-11.733 10.667,-18.133 z m -170.666,3.2 C 300.8,213.867 281.6,179.733 290.134,146.667 298.668,113.601 332.8,94.4 365.867,102.933 c 33.067,8.533 52.267,42.667 43.733,75.733 -9.6,33.067 -43.733,52.267 -75.733,43.734 z"
         id="path983-3-2" />
      <path
         style="fill:#00ff0a;fill-opacity:1;stroke:none;stroke-width:1.54915;stroke-opacity:1"
         d="m 357.333,136 c -14.933,-4.267 -29.867,4.267 -34.133,19.2 -4.267,14.933 4.267,29.867 19.2,34.133 14.933,4.267 29.867,-4.267 34.133,-19.2 3.2,-14.933 -5.333,-29.866 -19.2,-34.133 z"
         id="path985-5-9" />
    </g>
    <circle
       style="fill:#0698ff;fill-opacity:1;stroke:#ffffff;stroke-width:3.2;stroke-linejoin:round;stroke-miterlimit:4;stroke-dasharray:none;stroke-dashoffset:0;stroke-opacity:1;paint-order:markers fill stroke"
       id="path941-9-3-1"
       cx="130.29424"
       cy="135.36931"
       r="15.634387" />
    <circle
       style="fill:#0698ff;fill-opacity:1;stroke:#ffffff;stroke-width:3.2;stroke-linejoin:round;stroke-miterlimit:4;stroke-dasharray:none;stroke-dashoffset:0;stroke-opacity:1;paint-order:markers fill stroke"
       id="path941-9-3-2"
       cx="129.57898"
       cy="36.724297"
       r="15.634387" />
    <circle
       style="fill:#0698ff;fill-opacity:1;stroke:#ffffff;stroke-width:3.2;stroke-linejoin:round;stroke-miterlimit:4;stroke-dasharray:none;stroke-dashoffset:0;stroke-opacity:1;paint-order:markers fill stroke"
       id="path941-9-3-7"
       cx="31.447121"
       cy="37.031372"
       r="15.634387" />
    <g
       id="g987-0"
       transform="matrix(0.17314975,0,0,0.16846832,44.988637,70.180883)"
       style="fill:#e5ff00;fill-opacity:1;stroke:none;stroke-width:1.54915;stroke-opacity:1">
      <path
         style="fill:#e5ff00;fill-opacity:1;stroke:none;stroke-width:1.54915;stroke-opacity:1"
         d="M 504.533,219.2 512,192.533 477.867,174.4 c 1.067,-7.467 1.067,-14.933 0,-21.333 l 35.2,-18.133 -8.533,-27.733 -39.467,2.133 c -3.2,-6.4 -6.4,-12.8 -10.667,-19.2 L 475.733,57.067 455.467,36.8 422.4,58.133 C 417.067,53.866 410.667,50.666 404.267,47.466 L 406.4,8 378.667,0.533 l -18.133,35.2 c -7.467,-1.067 -14.933,-1.067 -21.333,0 L 322.134,0.533 294.4,8 l 2.133,39.467 c -6.4,3.2 -12.8,6.4 -19.2,10.667 L 244.267,36.8 224,56 245.333,89.067 C 241.066,94.4 237.866,100.8 234.666,107.2 l -39.467,-2.133 -7.467,27.733 35.2,18.133 c -1.067,7.467 -1.067,14.933 0,21.333 l -35.2,18.133 7.467,27.733 39.468,-2.132 c 3.2,6.4 6.4,12.8 10.667,19.2 L 224,268.267 l 20.267,20.267 33.067,-21.333 c 5.333,4.267 11.733,7.467 18.133,10.667 l -2.133,39.467 27.733,7.467 18.133,-34.133 c 7.467,1.067 14.933,1.067 21.333,0 l 18.133,35.2 27.734,-7.469 -2.133,-39.467 c 6.4,-3.2 12.8,-6.4 19.2,-10.667 l 33.067,21.333 20.267,-20.267 -21.333,-33.067 c 4.267,-5.333 7.467,-11.733 10.667,-18.133 z m -170.666,3.2 C 300.8,213.867 281.6,179.733 290.134,146.667 298.668,113.601 332.8,94.4 365.867,102.933 c 33.067,8.533 52.267,42.667 43.733,75.733 -9.6,33.067 -43.733,52.267 -75.733,43.734 z"
         id="path983-9" />
      <path
         style="fill:#e5ff00;fill-opacity:1;stroke:none;stroke-width:1.54915;stroke-opacity:1"
         d="m 357.333,136 c -14.933,-4.267 -29.867,4.267 -34.133,19.2 -4.267,14.933 4.267,29.867 19.2,34.133 14.933,4.267 29.867,-4.267 34.133,-19.2 3.2,-14.933 -5.333,-29.866 -19.2,-34.133 z"
         id="path985-3" />
    </g>
  </g>
</svg>
